+--- [group] -------------------------------------------------------------+
| Name:             %-54s|
| Description:      %-54s|
| Users:            %-54s|
| Slots:            %-54s|
| Leechers:         %-54s|
| Allotments:       %-54s|
| Max allotment:    %-54s|
+-------------------------------------------------------------------------+
| Statistics        Upload          Download                              |
+-------------------------------------------------------------------------+
| Files             %-15s %-15s                       |
| Bytes             %-12s    %-12s                          |
| Avg. Speed        %-15s %-15s                       |
+-------------------------------------------------------------------------+
| User              Gadmin                                                |
+-------------------------------------------------------------------------+
| %-16s  %-5s                                                 |
+------------------------------------------------------------ [cuftpd] ---+

